{
  "fio version" : "fio-2.1.3",
  "jobs" : [
    {
      "jobname" : "4k-randwrite",
      "groupid" : 0,
      "error" : 0,
      "read" : {
        "io_bytes" : 0,
        "bw" : 0,
        "iops" : 0,
        "runtime" : 0,
        "slat" : {
          "min" : 0,
          "max" : 0,
          "mean" : 0.00,
          "stddev" : 0.00
        },
        "clat" : {
          "min" : 0,
          "max" : 0,
          "mean" : 0.00,
          "stddev" : 0.00,
          "percentile" : {
            "1.000000" : 0,
            "5.000000" : 0,
            "10.000000" : 0,
            "20.000000" : 0,
            "30.000000" : 0,
            "40.000000" : 0,
            "50.000000" : 0,
            "60.000000" : 0,
            "70.000000" : 0,
            "80.000000" : 0,
            "90.000000" : 0,
            "95.000000" : 0,
            "99.000000" : 0,
            "99.500000" : 0,
            "99.900000" : 0,
            "99.950000" : 0,
            "99.990000" : 0,
            "0.00" : 0,
            "0.00" : 0,
            "0.00" : 0
          }
        },
        "lat" : {
          "min" : 0,
          "max" : 0,
          "mean" : 0.00,
          "stddev" : 0.00
        },
        "bw_min" : 0,
        "bw_max" : 0,
        "bw_agg" : 0.00,
        "bw_mean" : 0.00,
        "bw_dev" : 0.00
      },
      "write" : {
        "io_bytes" : 3812540,
        "bw" : 42234,
        "iops" : 10555,
        "runtime" : 90270,
        "slat" : {
          "min" : 0,
          "max" : 8748217,
          "mean" : 495.61,
          "stddev" : 16939.93
        },
        "clat" : {
          "min" : 221,
          "max" : 8881279,
          "mean" : 23540.07,
          "stddev" : 150101.75,
          "percentile" : {
            "1.000000" : 1160,
            "5.000000" : 1784,
            "10.000000" : 2192,
            "20.000000" : 2800,
            "30.000000" : 3312,
            "40.000000" : 3952,
            "50.000000" : 5152,
            "60.000000" : 6816,
            "70.000000" : 9664,
            "80.000000" : 16192,
            "90.000000" : 38144,
            "95.000000" : 92672,
            "99.000000" : 313344,
            "99.500000" : 460800,
            "99.900000" : 913408,
            "99.950000" : 1155072,
            "99.990000" : 8290304,
            "0.00" : 0,
            "0.00" : 0,
            "0.00" : 0
          }
        },
        "lat" : {
          "min" : 228,
          "max" : 8881288,
          "mean" : 24249.92,
          "stddev" : 152674.55
        },
        "bw_min" : 0,
        "bw_max" : 39992,
        "bw_agg" : 6199.07,
        "bw_mean" : 6199.07,
        "bw_dev" : 6158.56
      },
      "trim" : {
        "io_bytes" : 0,
        "bw" : 0,
        "iops" : 0,
        "runtime" : 0,
        "slat" : {
          "min" : 0,
          "max" : 0,
          "mean" : 0.00,
          "stddev" : 0.00
        },
        "clat" : {
          "min" : 0,
          "max" : 0,
          "mean" : 0.00,
          "stddev" : 0.00,
          "percentile" : {
            "1.000000" : 0,
            "5.000000" : 0,
            "10.000000" : 0,
            "20.000000" : 0,
            "30.000000" : 0,
            "40.000000" : 0,
            "50.000000" : 0,
            "60.000000" : 0,
            "70.000000" : 0,
            "80.000000" : 0,
            "90.000000" : 0,
            "95.000000" : 0,
            "99.000000" : 0,
            "99.500000" : 0,
            "99.900000" : 0,
            "99.950000" : 0,
            "99.990000" : 0,
            "0.00" : 0,
            "0.00" : 0,
            "0.00" : 0
          }
        },
        "lat" : {
          "min" : 0,
          "max" : 0,
          "mean" : 0.00,
          "stddev" : 0.00
        },
        "bw_min" : 0,
        "bw_max" : 0,
        "bw_agg" : 0.00,
        "bw_mean" : 0.00,
        "bw_dev" : 0.00
      },
      "usr_cpu" : 0.71,
      "sys_cpu" : 2.93,
      "ctx" : 2206197,
      "majf" : 0,
      "minf" : 237,
      "iodepth_level" : {
        "1" : 0.10,
        "2" : 0.10,
        "4" : 0.10,
        "8" : 0.10,
        "16" : 0.10,
        "32" : 237.39,
        ">=64" : 0.00
      },
      "latency_us" : {
        "2" : 0.00,
        "4" : 0.00,
        "10" : 0.00,
        "20" : 0.00,
        "50" : 0.00,
        "100" : 0.00,
        "250" : 0.01,
        "500" : 0.01,
        "750" : 0.15,
        "1000" : 0.36
      },
      "latency_ms" : {
        "2" : 6.90,
        "4" : 32.97,
        "10" : 30.60,
        "20" : 12.05,
        "50" : 8.83,
        "100" : 3.51,
        "250" : 3.17,
        "500" : 1.03,
        "750" : 0.24,
        "1000" : 0.10,
        "2000" : 0.04,
        ">=2000" : 0.03
      }
    }
  ],
  "disk_util" : [
    {
      "name" : "vdb",
      "read_ios" : 342,
      "write_ios" : 2262244,
      "read_merges" : 0,
      "write_merges" : 0,
      "read_ticks" : 216,
      "write_ticks" : 9239772,
      "in_queue" : 9242720,
      "util" : 100.00
    }
  ]
}
